Projects.sim/simulate.log
Time resolution is 1 ps
Time=0, Reset=1, Coin=00, State=0000, Z=0, Change=0
Time=20000, Reset=0, Coin=00, State=0000, Z=0, Change=0
Time=25000, Reset=0, Coin=00, State=0001, Z=0, Change=0
Time=35000, Reset=0, Coin=00, State=0010, Z=0, Change=0
Time=45000, Reset=0, Coin=00, State=0011, Z=0, Change=0
Time=55000, Reset=0, Coin=00, State=0100, Z=1, Change=0
Time=65000, Reset=0, Coin=00, State=0000, Z=0, Change=0
Time=75000, Reset=0, Coin=00, State=0001, Z=0, Change=0
Time=85000, Reset=0, Coin=00, State=0010, Z=0, Change=0
Time=90000, Reset=0, Coin=01, State=0010, Z=0, Change=0
Time=95000, Reset=0, Coin=01, State=0100, Z=1, Change=0
Time=105000, Reset=0, Coin=01, State=0000, Z=0, Change=0
Time=110000, Reset=0, Coin=00, State=0000, Z=0, Change=0
Time=115000, Reset=0, Coin=00, State=0001, Z=0, Change=0
Time=125000, Reset=0, Coin=00, State=0010, Z=0, Change=0
Time=130000, Reset=0, Coin=10, State=0010, Z=0, Change=0
Time=135000, Reset=0, Coin=10, State=0111, Z=1, Change=1
Time=140000, Reset=0, Coin=00, State=0111, Z=1, Change=1
Time=145000, Reset=0, Coin=00, State=0000, Z=0, Change=0
Time=155000, Reset=0, Coin=00, State=0001, Z=0, Change=0
Time=165000, Reset=0, Coin=00, State=0010, Z=0, Change=0
Time=170000, Reset=0, Coin=01, State=0010, Z=0, Change=0
Time=175000, Reset=0, Coin=01, State=0100, Z=1, Change=0
Time=180000, Reset=0, Coin=00, State=0100, Z=1, Change=0
Time=185000, Reset=0, Coin=00, State=0000, Z=0, Change=0
Time=195000, Reset=0, Coin=00, State=0001, Z=0, Change=0
Time=205000, Reset=0, Coin=00, State=0010, Z=0, Change=0
Time=210000, Reset=0, Coin=10, State=0010, Z=0, Change=0
Time=215000, Reset=0, Coin=10, State=0111, Z=1, Change=1
Time=220000, Reset=0, Coin=00, State=0111, Z=1, Change=1
Time=225000, Reset=0, Coin=00, State=0000, Z=0, Change=0
Time=235000, Reset=0, Coin=00, State=0001, Z=0, Change=0
Time=245000, Reset=0, Coin=00, State=0010, Z=0, Change=0
Time=255000, Reset=0, Coin=00, State=0011, Z=0, Change=0
Time=265000, Reset=0, Coin=00, State=0100, Z=1, Change=0
Time=275000, Reset=0, Coin=00, State=0000, Z=0, Change=0
$finish called at time : 280 ns : File "E:/Xilinx/Vivado Project/InternShala Projects/InternShala Projects.srcs/sim_1/new/Vending_Machine_tb.v" Line 69
